-------------------------------------------------------------------------------
Test set: it.akademija.HelloControllerTest
-------------------------------------------------------------------------------
Tests run: 1, Failures: 0, Errors: 0, Skipped: 0, Time elapsed: 14.411 s - in it.akademija.HelloControllerTest
